<?xml version="1.0" encoding="UTF-8" standalone="no"?>
<!-- Created with Inkscape (http://www.inkscape.org/) -->

<svg
   xmlns:dc="http://purl.org/dc/elements/1.1/"
   xmlns:cc="http://creativecommons.org/ns#"
   xmlns:rdf="http://www.w3.org/1999/02/22-rdf-syntax-ns#"
   xmlns:svg="http://www.w3.org/2000/svg"
   xmlns="http://www.w3.org/2000/svg"
   xmlns:sodipodi="http://sodipodi.sourceforge.net/DTD/sodipodi-0.dtd"
   xmlns:inkscape="http://www.inkscape.org/namespaces/inkscape"
   version="1.1"
   id="svg2"
   width="33"
   height="73"
   viewBox="0 0 33 73"
   sodipodi:docname="female-logo.svg"
   inkscape:version="0.92.3 (2405546, 2018-03-11)">
  <metadata
     id="metadata8">
    <rdf:RDF>
      <cc:Work
         rdf:about="">
        <dc:format>image/svg+xml</dc:format>
        <dc:type
           rdf:resource="http://purl.org/dc/dcmitype/StillImage" />
        <dc:title></dc:title>
      </cc:Work>
    </rdf:RDF>
  </metadata>
  <defs
     id="defs6" />
  <sodipodi:namedview
     pagecolor="#ffffff"
     bordercolor="#666666"
     borderopacity="1"
     objecttolerance="10"
     gridtolerance="10"
     guidetolerance="10"
     inkscape:pageopacity="0"
     inkscape:pageshadow="2"
     inkscape:window-width="1920"
     inkscape:window-height="1001"
     id="namedview4"
     showgrid="false"
     inkscape:zoom="9.1439562"
     inkscape:cx="-19.022188"
     inkscape:cy="34.559466"
     inkscape:window-x="-9"
     inkscape:window-y="-9"
     inkscape:window-maximized="1"
     inkscape:current-layer="svg2" />
  <circle
     style="opacity:1;fill:#5e5e5e;fill-opacity:1;stroke:#000000;stroke-width:0;stroke-miterlimit:4;stroke-dasharray:none;stroke-opacity:1"
     id="path819"
     cx="16.62606"
     cy="10.980932"
     r="9.5116529" />
  <path
     style="opacity:1;fill:#5e5e5e;fill-opacity:1;stroke:none;stroke-width:1px;stroke-linecap:butt;stroke-linejoin:miter;stroke-opacity:1"
     d="m 5.8508589,21.553825 c 0,0 19.3284231,0.005 20.9701371,-1e-6 1.641714,-0.005 2.661896,0.933794 2.542661,2.898088 -0.166538,2.74357 -0.460901,14.883537 -0.460901,14.883537 l 2.839522,17.651616 c 0,0 0.355426,1.80447 -1.339683,1.859151 -1.695109,0.05468 -6.589051,-10e-7 -6.589051,-10e-7 l 0.04004,9.737896 c 0,0 -0.450146,2.537972 -3.62164,2.537972 -3.171494,0 -3.744269,-2.512575 -3.744269,-2.512575 0,0 -0.847138,2.549758 -3.801699,2.512575 C 9.7871444,71.085603 9.2410764,68.657557 9.2410764,68.657557 L 9.131715,58.955579 c 0,0 -4.6119126,-0.03161 -6.2822419,-0.05468 -1.1297292,-0.0156 -1.5310657,-0.43064 -1.5310657,-1.312343 0,-1.093961 2.6779909,-18.645254 2.6779909,-18.645254 0,0 -0.4060645,-12.368959 -0.5241599,-14.300005 -0.1180953,-1.931047 0.9022355,-3.034791 2.3786205,-3.089472 z"
     id="path821"
     inkscape:connector-curvature="0"
     sodipodi:nodetypes="czsccsccscsccssczc" />
</svg>
