<?xml version="1.0" encoding="UTF-8" standalone="no"?>
<!-- Created with Inkscape (http://www.inkscape.org/) -->

<svg
   xmlns:dc="http://purl.org/dc/elements/1.1/"
   xmlns:cc="http://creativecommons.org/ns#"
   xmlns:rdf="http://www.w3.org/1999/02/22-rdf-syntax-ns#"
   xmlns:svg="http://www.w3.org/2000/svg"
   xmlns="http://www.w3.org/2000/svg"
   xmlns:sodipodi="http://sodipodi.sourceforge.net/DTD/sodipodi-0.dtd"
   xmlns:inkscape="http://www.inkscape.org/namespaces/inkscape"
   width="33"
   height="73"
   viewBox="0 0 8.7312498 19.314584"
   version="1.1"
   id="svg5746"
   inkscape:version="0.92.3 (2405546, 2018-03-11)"
   sodipodi:docname="male-logo.svg">
  <defs
     id="defs5740" />
  <sodipodi:namedview
     id="base"
     pagecolor="#ffffff"
     bordercolor="#666666"
     borderopacity="1.0"
     inkscape:pageopacity="0.0"
     inkscape:pageshadow="2"
     inkscape:zoom="11.2"
     inkscape:cx="22.702297"
     inkscape:cy="50.878518"
     inkscape:document-units="mm"
     inkscape:current-layer="layer1"
     showgrid="false"
     units="px"
     inkscape:window-width="1920"
     inkscape:window-height="1001"
     inkscape:window-x="-9"
     inkscape:window-y="-9"
     inkscape:window-maximized="1" />
  <metadata
     id="metadata5743">
    <rdf:RDF>
      <cc:Work
         rdf:about="">
        <dc:format>image/svg+xml</dc:format>
        <dc:type
           rdf:resource="http://purl.org/dc/dcmitype/StillImage" />
        <dc:title></dc:title>
      </cc:Work>
    </rdf:RDF>
  </metadata>
  <g
     inkscape:label="Layer 1"
     inkscape:groupmode="layer"
     id="layer1"
     transform="translate(0,-277.6854)">
    <path
       style="display:inline;fill:#5e5e5e;fill-opacity:1;stroke:#000000;stroke-width:0;stroke-linecap:butt;stroke-linejoin:miter;stroke-miterlimit:4;stroke-dasharray:none;stroke-opacity:1"
       d="m 1.367198,283.29188 5.6062191,-0.0145 c 0,0 0.8391245,0.0651 0.9331643,0.59318 0.09404,0.52807 -0.2531841,5.3458 -0.2531841,5.3458 0,0 -0.072338,0.26765 -0.2097812,0.41233 -0.1374428,0.14467 -0.8029551,0.73061 -0.8029551,0.73061 0,0 -0.2170152,0.17362 -0.2459503,0.35446 -0.030064,0.1879 0.00723,5.14325 0.00723,5.14325 0,0 -0.2387164,0.67275 -1.0199701,0.65828 -0.7812537,-0.0145 -0.991035,-0.63657 -0.991035,-0.63657 0,0 -0.3978606,0.62934 -1.0778406,0.64381 -0.6799803,0.0145 -1.0055027,-0.54254 -1.0055027,-0.54254 l 0.057065,-5.28721 c 0,0 -0.051622,-0.2606 -0.2758704,-0.36187 -0.2242487,-0.10128 -0.8600201,-0.65793 -0.8600201,-0.65793 0,0 -0.1807562,-0.21157 -0.2169254,-0.37071 -0.0361691,-0.15915 -0.4069613,-5.13048 -0.28131361,-5.44101 0.12564766,-0.31053 0.31837811,-0.55494 0.63666661,-0.56941 z"
       id="path5162-9"
       inkscape:connector-curvature="0"
       sodipodi:nodetypes="ccscscscscsccccszc" />
    <circle
       style="display:inline;opacity:1;fill:#5e5e5e;fill-opacity:1;stroke:#000000;stroke-width:0;stroke-miterlimit:4;stroke-dasharray:none;stroke-opacity:1"
       id="path5141-3-2"
       cx="4.3448114"
       cy="280.59518"
       r="2.4213085"
       inkscape:transform-center-x="-4.8709066"
       inkscape:transform-center-y="-4.0590898" />
  </g>
</svg>
