<?xml version="1.0" standalone="no"?> <!DOCTYPE svg PUBLIC "-//W3C//DTD SVG 1.0//EN" "http://www.w3.org/TR/2001/REC-SVG-20010904/DTD/svg10.dtd" > <svg xmlns="http://www.w3.org/2000/svg" width="100%" height="100%">
<defs >
<font id="sourcesanspro-semibold" horiz-adv-x="459" ><font-face
    font-family="Source Sans Pro Semibold"
    units-per-em="1000"
    panose-1="2 11 6 3 3 4 3 2 2 4"
    ascent="963"
    descent="-354"
    alphabetic="0" />
<missing-glyph horiz-adv-x="672" d="M84 660H588V0H84V660ZM277 340L166 549V133L277 340ZM505 133V549L395 340L505 133ZM440 75L384 179L338 279H334L287 179L230 75H440ZM338 401L384 495L432 584H239L288 495L334 401H338Z" />
<glyph unicode=" " glyph-name="space" horiz-adv-x="205" />
<glyph unicode="!" glyph-name="exclam" horiz-adv-x="315" d="M103 556L100 670H216L212 556L196 215H119L103 556ZM83 66Q83 100 104 122T158 144Q190 144 211 122T232 66Q232 32 211 10T158 -12Q126 -12 105 10T83 66Z" />
<glyph unicode="&quot;" glyph-name="quotedbl" horiz-adv-x="482" d="M82 575L78 688H196L193 575L170 392H104L82 575ZM289 575L285 688H403L400 575L377 392H311L289 575Z" />
<glyph unicode="#" glyph-name="numbersign" horiz-adv-x="513" d="M112 195H35V271H120L136 400H55V476H146L168 650H237L216 476H333L356 650H424L403 476H483V400H394L378 271H463V195H369L346 0H276L299 195H182L158 0H88L112 195ZM308 271L324 400H206L190 271H308Z" />
<glyph unicode="$" glyph-name="dollar" horiz-adv-x="513" d="M384 501Q356 527 330 540T268 554Q227 554 204 534T181 474Q181 444 201 425T251 389T317 356T382 316T433 260T453 176Q453 104 413 56T298 -7V-110H218V-10Q172 -5 126 14T45 66L97 144Q132 116
168 99T245 82Q294 82 318 104T342 168Q342 201 322 223T272 263T206 297T141 336T90 390T70 469Q70 539 110 585T218 644V746H298V646Q346 640 380 619T443 568L384 501Z" />
<glyph unicode="%" glyph-name="percent" horiz-adv-x="841" d="M186 252Q117 252 74 306T30 460Q30 559 73 612T186 666Q255 666 298 613T342 460Q342 361 299 307T186 252ZM186 319Q218 319 238 352T259 460Q259 534 239 566T186 599Q154 599 134 567T113 460Q113
386 133 353T186 319ZM206 -12L563 666H633L277 -12H206ZM655 -12Q586 -12 543 42T499 196Q499 295 542 348T655 402Q724 402 767 349T811 196Q811 97 768 43T655 -12ZM655 55Q687 55 707 88T728 196Q728 270 708 302T655 335Q623 335 603 303T582 196Q582 122
602 89T655 55Z" />
<glyph unicode="&amp;" glyph-name="ampersand" horiz-adv-x="639" d="M138 179Q138 133 170 105T251 77Q278 77 304 87T356 116Q312 153 273 194T201 281Q173 258 156 234T138 179ZM207 504Q207 481 214 458T233 408Q274 434 302 461T330 526Q330 552 318 570T277
588Q246 588 227 565T207 504ZM593 -12Q555 -3 515 14T434 58Q395 26 346 7T237 -12Q188 -12 150 2T84 41T43 99T28 172Q28 206 38 233T65 282T105 323T153 359Q133 397 122 433T111 503Q111 537 122 566T156 618T208 653T276 666Q343 666 381 628T420 527Q420
495 408 468T376 419T331 376T278 337Q308 296 346 258T427 187Q454 223 475 266T510 361H616Q598 299 570 242T504 134Q536 114 566 101T622 82L593 -12Z" />
<glyph unicode="&apos;" glyph-name="quotesingle" horiz-adv-x="275" d="M82 575L78 688H196L193 575L170 392H104L82 575Z" />
<glyph unicode="(" glyph-name="parenleft" horiz-adv-x="324" d="M209 -178Q146 -75 112 35T77 278Q77 411 111 521T209 734L281 702Q224 605 198 497T171 278Q171 167 197 59T281 -146L209 -178V-178Z" />
<glyph unicode=")" glyph-name="parenright" horiz-adv-x="324" d="M43 -146Q100 -49 126 59T153 278Q153 389 127 497T43 702L115 734Q178 631 212 521T247 278Q247 145 213 35T115 -178L43 -146V-146Z" />
<glyph unicode="*" glyph-name="asterisk" horiz-adv-x="438" d="M92 421L150 519L48 564L67 624L176 599L187 712H250L261 599L371 624L390 564L287 519L345 421L294 384L219 471L143 384L92 421Z" />
<glyph unicode="+" glyph-name="plus" horiz-adv-x="513" d="M213 288H34V372H213V561H300V372H479V288H300V99H213V288Z" />
<glyph unicode="," glyph-name="comma" horiz-adv-x="275" d="M47 -119Q95 -100 121 -68T148 2H139Q110 2 88 20T65 73Q65 105 87 124T142 144Q183 144 205 113T228 26Q228 -48 188 -102T72 -182L47 -119Z" />
<glyph unicode="-" glyph-name="hyphen" horiz-adv-x="322" d="M42 294H280V210H42V294Z" />
<glyph unicode="." glyph-name="period" horiz-adv-x="275" d="M63 66Q63 100 84 122T138 144Q170 144 191 122T212 66Q212 32 191 10T138 -12Q106 -12 85 10T63 66Z" />
<glyph unicode="/" glyph-name="slash" horiz-adv-x="344" d="M245 710H323L90 -160H12L245 710Z" />
<glyph unicode="0" glyph-name="zero" horiz-adv-x="513" d="M256 -12Q156 -12 98 73T40 321Q40 483 98 565T256 648Q356 648 414 565T472 321Q472 159 414 74T256 -12ZM256 78Q279 78 298 90T332 132T354 207T362 321Q362 388 354 433T332 507T299 546T256 558Q233
558 214 547T180 507T158 434T150 321Q150 253 158 207T180 132T213 91T256 78Z" />
<glyph unicode="1" glyph-name="one" horiz-adv-x="513" d="M74 94H216V512H99V584Q147 593 181 605T246 636H332V94H457V0H74V94Z" />
<glyph unicode="2" glyph-name="two" horiz-adv-x="513" d="M38 67Q104 131 157 185T248 285T306 371T326 447Q326 498 299 527T221 557Q184 557 154 536T97 486L33 550Q77 597 123 622T236 648Q282 648 319 634T382 595T422 533T437 453Q437 411 419 368T369
280T295 188T206 91Q231 93 260 95T312 98H468V0H38V67Z" />
<glyph unicode="3" glyph-name="three" horiz-adv-x="513" d="M79 152Q108 123 145 103T230 82Q282 82 314 107T347 178Q347 203 338 223T308 257T250 278T160 286V370Q207 370 238 377T289 398T317 431T326 472Q326 512 301 534T232 557Q194 557 164 541T104
497L45 568Q86 604 132 626T236 648Q282 648 320 637T385 605T427 552T442 480Q442 426 413 390T331 334V330Q388 315 425 275T463 172Q463 128 446 94T398 37T327 1T240 -12Q162 -12 110 14T24 78L79 152Z" />
<glyph unicode="4" glyph-name="four" horiz-adv-x="513" d="M299 253V397Q299 425 300 463T304 529H300Q288 504 275 480T248 430L132 253H299ZM487 164H407V0H299V164H18V242L270 636H407V253H487V164Z" />
<glyph unicode="5" glyph-name="five" horiz-adv-x="513" d="M77 150Q106 123 142 103T226 82Q280 82 314 114T349 204Q349 261 317 292T232 323Q201 323 180 315T130 287L75 322L94 636H434V539H194L181 385Q201 395 220 400T265 406Q306 406 342 394T406 358T449
296T465 207Q465 155 447 114T397 45T326 3T241 -12Q164 -12 112 14T24 76L77 150Z" />
<glyph unicode="6" glyph-name="six" horiz-adv-x="513" d="M273 76Q313 76 340 107T368 197Q368 254 342 282T268 310Q241 310 211 294T154 237Q163 152 194 114T273 76ZM402 506Q385 527 358 540T301 554Q271 554 245 542T198 503T166 430T151 319Q179 354 216
374T289 394Q330 394 364 382T423 346T461 284T475 197Q475 149 459 111T416 45T353 3T275 -12Q228 -12 186 6T113 63T63 160T44 299Q44 392 65 458T120 566T200 628T294 648Q352 648 393 627T464 576L402 506Z" />
<glyph unicode="7" glyph-name="seven" horiz-adv-x="513" d="M168 0Q172 85 183 155T214 290T267 414T345 539H44V636H471V566Q415 497 381 435T326 307T298 167T285 0H168V0Z" />
<glyph unicode="8" glyph-name="eight" horiz-adv-x="513" d="M142 175Q142 127 176 99T259 70Q305 70 334 95T364 165Q364 191 352 209T320 242T271 269T211 294Q181 272 162 242T142 175ZM299 359Q325 385 338 412T352 469Q352 511 328 538T258 566Q221 566
196 544T171 479Q171 455 181 437T208 406T249 381T299 359ZM41 163Q41 193 50 217T76 262T112 298T156 326V330Q119 356 94 392T68 479Q68 518 82 549T122 602T183 636T260 648Q303 648 337 636T396 601T434 547T447 476Q447 452 440 431T420 391T393 357T362
330V326Q384 314 404 299T439 263T463 218T472 161Q472 124 457 93T413 38T345 1T257 -12Q210 -12 171 1T103 37T58 92T41 163Z" />
<glyph unicode="9" glyph-name="nine" horiz-adv-x="513" d="M244 326Q271 326 301 343T358 400Q349 484 317 522T238 560Q199 560 171 529T143 440Q143 383 169 355T244 326ZM109 130Q127 109 154 96T211 82Q241 82 267 94T314 133T346 206T361 317Q333 282 295
263T222 243Q181 243 147 255T89 291T51 353T37 440Q37 488 53 526T96 592T159 633T237 648Q283 648 325 630T398 573T448 477T467 338Q467 245 447 179T392 71T312 8T217 -12Q160 -12 118 9T47 60L109 130Z" />
<glyph unicode=":" glyph-name="colon" horiz-adv-x="275" d="M63 408Q63 442 84 464T138 486Q170 486 191 464T212 408Q212 374 191 352T138 330Q106 330 85 352T63 408ZM63 66Q63 100 84 122T138 144Q170 144 191 122T212 66Q212 32 191 10T138 -12Q106 -12
85 10T63 66Z" />
<glyph unicode=";" glyph-name="semicolon" horiz-adv-x="275" d="M63 408Q63 442 84 464T138 486Q170 486 191 464T212 408Q212 374 191 352T138 330Q106 330 85 352T63 408ZM47 -119Q95 -100 121 -68T148 2H139Q110 2 88 20T65 73Q65 105 87 124T142 144Q183
144 205 113T228 26Q228 -48 188 -102T72 -182L47 -119Z" />
<glyph unicode="&lt;" glyph-name="less" horiz-adv-x="513" d="M34 374L479 547V450L286 382L151 334V330L286 282L479 214V117L34 290V374Z" />
<glyph unicode="=" glyph-name="equal" horiz-adv-x="513" d="M34 484H479V400H34V484ZM34 517H479V433H34V517Z" />
<glyph unicode="&gt;" glyph-name="greater" horiz-adv-x="513" d="M479 290L34 117V214L227 282L362 330V334L227 382L34 450V547L479 374V290Z" />
<glyph unicode="?" glyph-name="question" horiz-adv-x="444" d="M157 215Q152 251 159 281T181 336T214 382T249 424T277 465T288 508Q288 544 267 566T207 588Q176 588 151 574T104 536L40 595Q72 633 116 657T215 682Q255 682 289 672T348 640T386 588T400
516Q400 484 389 459T360 410T324 366T289 322T264 273T258 215H157ZM134 66Q134 100 155 122T208 144Q240 144 261 122T283 66Q283 32 262 10T208 -12Q176 -12 155 10T134 66Z" />
<glyph unicode="@" glyph-name="at" horiz-adv-x="875" d="M50 204Q50 307 85 390T179 533T317 625T484 658Q562 658 625 633T733 563T802 454T826 314Q826 247 807 197T756 112T687 61T612 44Q569 44 539 63T502 120H500Q477 90 444 71T379 52Q324 52 289 90T253
198Q253 241 267 283T308 360T370 415T450 437Q502 437 528 388H530L543 429H616L573 218Q548 117 623 117Q646 117 669 130T710 169T739 229T750 310Q750 367 734 417T684 504T598 564T475 586Q409 586 347 559T237 483T160 364T130 208Q130 134 153 78T216 -15T310
-72T425 -91Q467 -91 508 -80T582 -50L609 -114Q521 -164 416 -164Q342 -164 276 -141T159 -72T80 43T50 204ZM342 205Q342 164 358 146T403 127Q421 127 440 139T482 179L508 326Q486 361 453 361Q427 361 407 346T372 308T350 258T342 205Z" />
<glyph unicode="A" glyph-name="A" horiz-adv-x="555" d="M359 268L336 348Q321 400 306 455T277 564H273Q259 509 245 455T215 348L192 268H359ZM385 177H166L115 0H-4L210 654H346L559 0H436L385 177Z" />
<glyph unicode="B" glyph-name="B" horiz-adv-x="594" d="M82 654H291Q341 654 384 646T458 619T506 569T524 493Q524 446 497 406T412 351V347Q483 335 521 297T559 192Q559 143 540 107T488 47T408 12T308 0H82V654ZM280 383Q349 383 379 408T410 479Q410 524
379 544T283 564H198V383H280ZM296 90Q368 90 406 117T445 200Q445 251 407 275T296 300H198V90H296Z" />
<glyph unicode="C" glyph-name="C" horiz-adv-x="573" d="M47 325Q47 405 70 468T135 576T231 643T349 666Q409 666 456 641T535 583L471 511Q445 536 417 550T350 565Q310 565 276 549T218 502T180 427T166 328Q166 216 215 153T346 89Q390 89 423 106T484 154L548
83Q508 37 458 13T344 -12Q282 -12 228 10T133 75T70 181T47 325Z" />
<glyph unicode="D" glyph-name="D" horiz-adv-x="618" d="M76 654H251Q401 654 485 573T570 330Q570 249 549 187T487 84T388 21T257 0H76V654ZM243 94Q343 94 396 151T450 330Q450 450 396 505T243 560H192V94H243Z" />
<glyph unicode="E" glyph-name="E" horiz-adv-x="534" d="M82 654H475V556H198V389H433V291H198V98H485V0H82V654Z" />
<glyph unicode="F" glyph-name="F" horiz-adv-x="506" d="M82 654H477V556H198V371H435V273H198V0H82V654Z" />
<glyph unicode="G" glyph-name="G" horiz-adv-x="624" d="M47 325Q47 405 71 468T137 576T236 643T359 666Q393 666 422 659T475 641T519 614T554 583L490 511Q465 535 436 550T360 565Q316 565 281 549T220 502T180 427T166 328Q166 216 217 153T367 89Q394 89
419 96T460 118V259H337V354H564V66Q530 34 475 11T353 -12Q288 -12 232 10T135 75T71 181T47 325Z" />
<glyph unicode="H" glyph-name="H" horiz-adv-x="660" d="M82 654H198V391H462V654H578V0H462V290H198V0H82V654Z" />
<glyph unicode="I" glyph-name="I" horiz-adv-x="279" d="M82 654H198V0H82V654Z" />
<glyph unicode="J" glyph-name="J" horiz-adv-x="491" d="M102 158Q122 122 148 106T204 89Q250 89 273 117T297 215V654H413V205Q413 160 402 121T367 52T306 5T218 -12Q149 -12 102 16T22 99L102 158Z" />
<glyph unicode="K" glyph-name="K" horiz-adv-x="594" d="M82 654H198V357H201L434 654H562L361 399L596 0H468L292 308L198 191V0H82V654Z" />
<glyph unicode="L" glyph-name="L" horiz-adv-x="499" d="M82 654H198V98H469V0H82V654Z" />
<glyph unicode="M" glyph-name="M" horiz-adv-x="742" d="M82 654H209L327 332L370 208H374L417 332L532 654H660V0H551V299Q551 322 552 349T556 403T561 457T566 507H562L509 358L396 61H343L230 358L178 507H174Q176 484 178 458T183 404T186 349T188 299V0H82V654Z" />
<glyph unicode="N" glyph-name="N" horiz-adv-x="653" d="M82 654H201L404 286L472 147H476Q471 198 466 256T461 370V654H571V0H452L249 368L181 507H177Q182 455 187 398T192 286V0H82V654Z" />
<glyph unicode="O" glyph-name="O" horiz-adv-x="671" d="M336 -12Q272 -12 219 11T128 79T68 187T47 330Q47 409 68 471T127 577T219 643T336 666Q400 666 453 643T544 577T603 472T624 330Q624 250 603 187T544 80T453 12T336 -12ZM336 89Q374 89 405 106T459
154T493 230T505 330Q505 440 459 502T336 565Q258 565 212 503T166 330Q166 275 178 231T212 155T266 106T336 89Z" />
<glyph unicode="P" glyph-name="P" horiz-adv-x="588" d="M82 654H302Q356 654 401 644T480 610T531 548T550 452Q550 398 531 358T479 292T400 253T302 240H198V0H82V654ZM292 333Q366 333 401 362T436 452Q436 514 400 537T292 561H198V333H292Z" />
<glyph unicode="Q" glyph-name="Q" horiz-adv-x="671" d="M164 330Q164 275 176 231T210 155T263 106T333 89Q372 89 403 106T456 154T490 230T502 330Q502 440 457 502T333 565Q255 565 210 503T164 330ZM646 -153Q629 -161 602 -166T541 -171Q443 -171 377 -125T279
-7Q226 2 183 29T109 100T62 201T45 330Q45 409 66 471T125 577T216 643T333 666Q397 666 450 643T541 577T601 472T622 330Q622 262 607 206T562 106T493 35T402 -4Q425 -43 465 -60T554 -77Q576 -77 593 -74T625 -66L646 -153Z" />
<glyph unicode="R" glyph-name="R" horiz-adv-x="596" d="M198 348H290Q358 348 393 376T428 460Q428 517 393 539T290 561H198V348ZM438 0L297 256H198V0H82V654H302Q353 654 397 644T473 612T524 552T543 460Q543 385 508 339T412 273L568 0H438Z" />
<glyph unicode="S" glyph-name="S" horiz-adv-x="542" d="M104 163Q139 130 184 110T275 89Q330 89 359 112T389 173Q389 193 382 207T361 231T328 251T287 269L198 308Q174 318 150 333T108 369T78 418T66 482Q66 521 82 554T128 613T197 652T285 666Q343 666
396 644T487 583L427 509Q396 535 362 550T285 565Q238 565 211 545T183 488Q183 469 191 456T214 432T248 413T287 396L375 359Q404 347 428 331T470 294T497 246T507 182Q507 142 491 107T445 46T371 4T272 -12Q206 -12 145 13T37 84L104 163Z" />
<glyph unicode="T" glyph-name="T" horiz-adv-x="543" d="M214 556H25V654H518V556H330V0H214V556Z" />
<glyph unicode="U" glyph-name="U" horiz-adv-x="652" d="M78 654H194V278Q194 225 203 189T230 130T272 99T327 89Q357 89 382 98T424 130T452 188T462 278V654H574V287Q574 206 557 150T507 57T430 5T327 -12Q270 -12 224 4T146 57T96 149T78 287V654Z" />
<glyph unicode="V" glyph-name="V" horiz-adv-x="533" d="M-5 654H118L210 325Q226 269 238 219T267 112H271Q288 169 300 219T329 325L420 654H538L336 0H198L-5 654Z" />
<glyph unicode="W" glyph-name="W" horiz-adv-x="797" d="M16 654H136L192 324Q200 271 208 219T225 115H229Q239 167 249 219T271 324L352 654H452L533 324Q544 273 554 221T576 115H580Q588 168 596 220T612 324L668 654H780L654 0H510L429 344Q421 382 414
419T400 495H396Q389 457 382 420T367 344L288 0H146L16 654Z" />
<glyph unicode="X" glyph-name="X" horiz-adv-x="538" d="M197 337L23 654H152L225 509Q236 486 247 462T274 409H278Q290 438 300 462T322 509L391 654H514L340 332L526 0H397L317 154Q304 180 292 205T265 261H261Q248 231 236 206T212 154L135 0H12L197 337Z" />
<glyph unicode="Y" glyph-name="Y" horiz-adv-x="498" d="M191 243L-6 654H118L189 487Q203 450 217 416T247 343H251Q267 381 282 415T312 487L383 654H504L307 243V0H191V243Z" />
<glyph unicode="Z" glyph-name="Z" horiz-adv-x="537" d="M38 70L355 556H68V654H498V584L182 98H501V0H38V70Z" />
<glyph unicode="[" glyph-name="bracketleft" horiz-adv-x="324" d="M90 708H286V644H177V-89H286V-152H90V708Z" />
<glyph unicode="\" glyph-name="backslash" horiz-adv-x="344" d="M21 710H99L333 -160H254L21 710Z" />
<glyph unicode="]" glyph-name="bracketright" horiz-adv-x="324" d="M147 -89V644H38V708H234V-152H38V-89H147Z" />
<glyph unicode="^" glyph-name="asciicircum" horiz-adv-x="513" d="M208 670H304L458 279H361L306 430L258 565H254L207 430L152 279H55L208 670Z" />
<glyph unicode="_" glyph-name="underscore" horiz-adv-x="500" d="M488 -64V-133H12V-64H488Z" />
<glyph unicode="`" glyph-name="grave" horiz-adv-x="549" d="M144 719H258L348 573H262L144 719Z" />
<glyph unicode="a" glyph-name="a" horiz-adv-x="523" d="M52 132Q52 211 121 254T341 314Q341 333 336 350T321 381T294 402T252 410Q215 410 181 396T114 362L72 439Q113 465 163 484T273 503Q366 503 411 449T456 291V0H362L353 54H350Q317 26 280 7T198 -12Q133
-12 93 27T52 132ZM164 141Q164 108 183 93T234 78Q264 78 289 92T341 132V242Q291 236 257 226T203 204T173 175T164 141Z" />
<glyph unicode="b" glyph-name="b" horiz-adv-x="564" d="M73 706H188V524L185 442Q216 469 252 486T327 503Q373 503 409 486T470 436T508 357T521 254Q521 191 504 142T457 58T390 6T311 -12Q277 -12 243 4T177 50H174L164 0H73V706ZM188 124Q214 101 239 92T287
83Q336 83 369 125T402 252Q402 326 377 367T296 408Q244 408 188 353V124Z" />
<glyph unicode="c" glyph-name="c" horiz-adv-x="462" d="M41 245Q41 306 61 354T115 435T193 485T287 503Q335 503 370 487T431 446L376 373Q356 390 336 399T293 409Q233 409 196 365T159 245Q159 171 195 127T290 82Q320 82 345 94T391 124L439 51Q404 20 362
4T278 -12Q228 -12 185 5T109 55T59 136T41 245Z" />
<glyph unicode="d" glyph-name="d" horiz-adv-x="564" d="M43 245Q43 305 60 353T107 434T173 485T251 503Q293 503 322 489T380 449L376 528V706H491V0H396L388 53H384Q357 26 321 7T245 -12Q152 -12 98 55T43 245ZM162 246Q162 166 190 125T273 83Q328 83 376
138V367Q350 390 326 399T276 408Q228 408 195 366T162 246Z" />
<glyph unicode="e" glyph-name="e" horiz-adv-x="508" d="M41 245Q41 305 60 353T110 434T183 485T267 503Q317 503 355 486T418 438T457 364T470 270Q470 236 465 216H153Q161 149 199 113T298 77Q330 77 357 86T412 113L451 41Q416 18 373 3T283 -12Q232 -12
188 5T111 56T60 136T41 245ZM370 289Q370 348 346 381T270 414Q226 414 193 383T152 289H370Z" />
<glyph unicode="f" glyph-name="f" horiz-adv-x="317" d="M324 615Q297 627 270 627Q208 627 208 544V491H304V400H208V0H93V400H27V486L93 491V542Q93 580 102 612T131 668T181 705T256 718Q282 718 305 713T346 701L324 615Z" />
<glyph unicode="g" glyph-name="g" horiz-adv-x="520" d="M136 -72Q136 -105 169 -123T262 -142Q322 -142 358 -119T395 -63Q395 -34 373 -24T308 -14H241Q201 -14 174 -7Q136 -36 136 -72ZM40 -89Q40 -58 58 -32T110 16V20Q91 32 79 52T66 102Q66 131 82 154T120
193V197Q95 216 76 249T56 327Q56 369 72 402T114 457T176 491T250 503Q270 503 288 500T322 491H498V406H408Q420 392 428 371T436 323Q436 282 422 251T382 199T323 167T250 156Q234 156 217 159T183 169Q172 159 166 149T159 122Q159 101 176 89T239 77H326Q415
77 460 49T506 -44Q506 -80 488 -112T435 -167T353 -203T244 -217Q200 -217 163 -209T98 -185T56 -145T40 -89ZM250 228Q285 228 310 253T335 327Q335 373 311 398T250 424Q214 424 189 399T164 327Q164 279 189 254T250 228Z" />
<glyph unicode="h" glyph-name="h" horiz-adv-x="558" d="M73 706H188V524L184 429Q215 458 252 480T341 503Q420 503 456 453T492 308V0H377V293Q377 354 359 379T300 404Q268 404 244 389T188 343V0H73V706Z" />
<glyph unicode="i" glyph-name="i" horiz-adv-x="262" d="M131 577Q100 577 80 595T60 642Q60 671 80 689T131 708Q162 708 182 690T202 642Q202 613 182 595T131 577ZM73 491H188V0H73V491Z" />
<glyph unicode="j" glyph-name="j" horiz-adv-x="263" d="M74 491H190V-25Q190 -64 182 -97T156 -154T107 -192T34 -206Q7 -206 -12 -202T-46 -193L-24 -107Q-14 -110 -4 -112T18 -115Q51 -115 62 -93T74 -27V491ZM132 577Q102 577 82 595T61 642Q61 671 81 689T132
708Q163 708 183 690T204 642Q204 613 184 595T132 577Z" />
<glyph unicode="k" glyph-name="k" horiz-adv-x="522" d="M73 706H186V265H189L371 491H497L329 291L514 0H389L263 213L186 125V0H73V706Z" />
<glyph unicode="l" glyph-name="l" horiz-adv-x="271" d="M73 706H188V120Q188 99 196 91T213 82Q217 82 220 82T231 84L246 -2Q223 -12 185 -12Q123 -12 98 25T73 126V706Z" />
<glyph unicode="m" glyph-name="m" horiz-adv-x="843" d="M73 491H168L176 424H180Q211 457 247 480T330 503Q384 503 416 480T466 415Q501 453 539 478T624 503Q702 503 739 453T776 308V0H660V293Q660 354 642 379T585 404Q539 404 482 343V0H367V293Q367 354
349 379T291 404Q245 404 188 343V0H73V491Z" />
<glyph unicode="n" glyph-name="n" horiz-adv-x="560" d="M73 491H168L176 425H180Q213 457 251 480T341 503Q420 503 456 453T492 308V0H377V293Q377 354 359 379T300 404Q268 404 244 389T188 343V0H73V491Z" />
<glyph unicode="o" glyph-name="o" horiz-adv-x="549" d="M41 245Q41 306 60 354T111 435T186 485T274 503Q320 503 362 486T437 435T488 354T508 245Q508 184 489 136T437 55T363 5T274 -12Q228 -12 186 5T112 55T60 136T41 245ZM159 245Q159 171 189 127T274
82Q328 82 359 126T390 245Q390 320 359 364T274 409Q220 409 190 365T159 245Z" />
<glyph unicode="p" glyph-name="p" horiz-adv-x="564" d="M188 -40V-194H73V491H168L176 439H180Q211 465 249 484T328 503Q374 503 409 486T470 435T508 356T521 253Q521 190 504 141T457 58T390 6T311 -12Q279 -12 247 2T185 42L188 -40ZM188 124Q215 101 240
92T287 83Q336 83 369 125T402 252Q402 326 377 367T296 408Q244 408 188 353V124Z" />
<glyph unicode="q" glyph-name="q" horiz-adv-x="561" d="M43 245Q43 305 60 353T107 434T173 485T251 503Q293 503 324 489T387 444H390L400 491H491V-194H376V-33L380 48Q353 22 318 5T245 -12Q152 -12 98 55T43 245ZM162 246Q162 166 190 125T273 83Q328 83
376 138V367Q350 390 326 399T276 408Q228 408 195 366T162 246Z" />
<glyph unicode="r" glyph-name="r" horiz-adv-x="373" d="M73 491H168L176 404H180Q206 452 243 477T319 503Q354 503 375 493L355 393Q342 397 331 399T304 401Q275 401 243 379T188 300V0H73V491Z" />
<glyph unicode="s" glyph-name="s" horiz-adv-x="431" d="M78 130Q111 104 143 90T214 75Q254 75 273 91T292 134Q292 149 283 160T259 181T225 197T187 213Q163 222 138 234T94 263T62 302T49 356Q49 421 97 462T228 503Q279 503 320 485T391 444L338 374Q312
393 286 404T230 416Q193 416 176 401T158 362Q158 348 166 338T189 319T221 303T260 289Q285 280 310 269T355 240T388 199T401 140Q401 108 389 81T352 33T292 0T210 -12Q159 -12 110 7T24 56L78 130Z" />
<glyph unicode="t" glyph-name="t" horiz-adv-x="361" d="M90 400H20V486L96 491L110 625H206V491H331V400H206V166Q206 80 275 80Q288 80 301 83T326 91L346 6Q326 -1 301 -6T246 -12Q203 -12 174 1T126 37T99 93T90 166V400Z" />
<glyph unicode="u" glyph-name="u" horiz-adv-x="558" d="M69 491H184V198Q184 137 202 112T261 87Q293 87 317 103T370 155V491H485V0H390L382 72H378Q346 34 309 11T220 -12Q141 -12 105 38T69 183V491Z" />
<glyph unicode="v" glyph-name="v" horiz-adv-x="495" d="M12 491H129L207 236Q217 200 227 163T248 88H252Q263 126 273 163T294 236L372 491H483L316 0H183L12 491Z" />
<glyph unicode="w" glyph-name="w" horiz-adv-x="748" d="M24 491H140L199 236Q207 201 212 166T225 95H229Q236 131 243 166T260 236L324 491H429L494 236Q503 201 511 166T527 95H531Q538 131 544 166T557 236L616 491H724L599 0H462L405 229Q397 264 390 298T375
372H371Q364 333 357 298T342 228L286 0H154L24 491Z" />
<glyph unicode="x" glyph-name="x" horiz-adv-x="481" d="M170 256L24 491H148L203 398Q214 378 225 357T248 315H252Q261 335 271 356T290 398L337 491H456L311 243L467 0H343L283 97Q271 119 259 141T233 184H229Q218 163 208 142T186 97L134 0H14L170 256Z" />
<glyph unicode="y" glyph-name="y" horiz-adv-x="495" d="M63 -102Q70 -104 79 -106T98 -109Q137 -109 160 -86T196 -25L205 6L12 491H129L214 250Q225 218 235 183T257 112H261Q270 146 279 181T298 250L372 491H483L305 -22Q290 -64 272 -97T231 -153T177 -189T106
-202Q86 -202 71 -200T42 -192L63 -102V-102Z" />
<glyph unicode="z" glyph-name="z" horiz-adv-x="443" d="M34 62L266 400H60V491H410V430L179 92H418V0H34V62Z" />
<glyph unicode="{" glyph-name="braceleft" horiz-adv-x="324" d="M109 -14Q109 13 110 35T113 79T116 121T118 167Q118 181 114 194T100 218T74 236T32 243V313Q57 313 73 320T100 337T114 361T118 388Q118 435 114 476T109 570Q109 649 138 678T231 708H286V644H262Q227
644 215 627T202 565Q202 523 204 481T207 393Q207 339 191 314T140 280V276Q175 267 191 242T207 163Q207 115 205 75T202 -9Q202 -54 214 -71T262 -89H286V-152H231Q200 -152 177 -146T139 -123T117 -81T109 -14Z" />
<glyph unicode="|" glyph-name="bar" horiz-adv-x="255" d="M89 750H166V-250H89V750Z" />
<glyph unicode="}" glyph-name="braceright" horiz-adv-x="324" d="M61 -89Q97 -89 109 -72T122 -9Q122 34 120 74T117 163Q117 216 133 241T184 276V280Q149 289 133 314T117 393Q117 438 119 480T122 565Q122 610 110 627T61 644H38V708H92Q123 708 146 701T185
678T207 636T215 570Q215 518 211 477T206 388Q206 374 210 361T224 338T250 320T292 313V243Q267 243 251 236T224 219T210 195T206 167Q206 143 207 122T210 79T213 36T215 -14Q215 -54 208 -80T185 -123T147 -145T92 -152H38V-89H61Z" />
<glyph unicode="~" glyph-name="asciitilde" horiz-adv-x="513" d="M32 315Q64 367 99 389T170 412Q200 412 223 400T267 372T305 345T345 332Q387 332 419 391L480 344Q448 293 413 271T343 248Q313 248 290 260T246 288T208 315T168 328Q126 328 94 269L32 315Z" />
</font>
</defs>
</svg>
