<?xml version="1.0" standalone="no"?> <!DOCTYPE svg PUBLIC "-//W3C//DTD SVG 1.0//EN" "http://www.w3.org/TR/2001/REC-SVG-20010904/DTD/svg10.dtd" > <svg xmlns="http://www.w3.org/2000/svg" width="100%" height="100%">
<defs >
<font id="sourcesansprobold" horiz-adv-x="472" ><font-face
    font-family="Source Sans Pro"
    units-per-em="1000"
    panose-1="2 11 7 3 3 4 3 2 2 4"
    ascent="974"
    descent="-384"
    alphabetic="0" />
<missing-glyph horiz-adv-x="690" d="M80 660H610V0H80V660ZM273 340L178 526V155L273 340ZM511 155V526L417 340L511 155ZM427 91L388 168L347 266H343L302 168L263 91H427ZM347 414L389 509L421 568H269L300 509L343 414H347Z" />
<glyph unicode=" " glyph-name="space" horiz-adv-x="208" />
<glyph unicode="!" glyph-name="exclam" horiz-adv-x="340" d="M101 537L96 670H244L239 537L218 231H122L101 537ZM81 80Q81 120 106 146T170 173Q208 173 233 147T259 80Q259 41 234 15T170 -12Q132 -12 107 14T81 80Z" />
<glyph unicode="&quot;" glyph-name="quotedbl" horiz-adv-x="536" d="M81 553L76 686H224L219 553L190 354H110L81 553ZM317 553L312 686H460L455 553L426 354H346L317 553Z" />
<glyph unicode="#" glyph-name="numbersign" horiz-adv-x="528" d="M108 187H34V281H119L133 391H54V485H145L166 650H250L230 485H334L355 650H439L419 485H498V391H407L394 281H478V187H383L360 0H275L297 187H194L171 0H86L108 187ZM308 281L322 391H218L205 281H308Z" />
<glyph unicode="$" glyph-name="dollar" horiz-adv-x="528" d="M387 478Q360 503 335 515T278 528Q242 528 223 513T204 464Q204 440 223 424T272 392T336 361T399 322T448 267T468 186Q468 114 429 63T312 -6V-110H215V-10Q171 -5 123 14T39 66L103 165Q141 136
175 122T246 107Q288 107 307 124T327 176Q327 202 308 220T259 254T195 287T132 327T83 381T63 457Q63 531 103 579T215 642V745H312V644Q360 637 396 615T461 562L387 478Z" />
<glyph unicode="%" glyph-name="percent" horiz-adv-x="857" d="M188 250Q153 250 123 264T72 305T38 370T26 458Q26 507 38 545T71 609T123 650T188 664Q223 664 253 650T304 610T338 545T351 458Q351 409 339 371T305 305T253 264T188 250ZM188 332Q213 332
230 360T248 458Q248 528 231 555T188 582Q163 582 146 555T128 458Q128 388 145 360T188 332ZM210 -12L562 664H647L295 -12H210ZM669 -12Q634 -12 604 2T553 43T519 108T507 196Q507 245 519 283T552 347T604 388T669 402Q704 402 734 388T785 348T819 283T832
196Q832 147 820 109T786 43T734 2T669 -12ZM669 70Q694 70 711 98T729 196Q729 266 712 293T669 320Q644 320 627 293T609 196Q609 126 626 98T669 70Z" />
<glyph unicode="&amp;" glyph-name="ampersand" horiz-adv-x="667" d="M164 183Q164 146 190 123T261 100Q301 100 344 126Q306 157 272 191T208 261Q188 244 176 225T164 183ZM225 494Q225 476 230 456T246 416Q281 437 305 460T329 516Q329 539 318 553T284
567Q259 567 242 548T225 494ZM614 -12Q573 -4 531 13T447 54Q405 23 355 6T242 -12Q189 -12 149 3T81 43T39 102T25 174Q25 208 34 235T60 285T98 325T144 358Q125 393 115 427T104 493Q104 528 116 559T152 613T207 650T281 664Q355 664 398 624T441 516Q441
484 430 458T399 409T355 367T305 331Q333 299 366 269T436 212Q461 244 480 283T511 368H645Q627 308 601 254T536 148Q567 132 595 122T649 107L614 -12Z" />
<glyph unicode="&apos;" glyph-name="quotesingle" horiz-adv-x="300" d="M81 553L76 686H224L219 553L190 354H110L81 553Z" />
<glyph unicode="(" glyph-name="parenleft" horiz-adv-x="344" d="M204 -179Q141 -76 107 35T72 278Q72 410 106 521T204 735L296 697Q241 599 216 492T191 278Q191 171 216 64T296 -141L204 -179V-179Z" />
<glyph unicode=")" glyph-name="parenright" horiz-adv-x="344" d="M48 -141Q104 -43 129 64T154 278Q154 385 129 492T48 697L140 735Q203 632 237 521T272 278Q272 146 238 35T140 -179L48 -141V-141Z" />
<glyph unicode="*" glyph-name="asterisk" horiz-adv-x="457" d="M87 393L146 497L38 546L61 618L177 594L190 712H267L280 593L395 618L419 546L311 497L370 393L309 349L229 438L148 349L87 393Z" />
<glyph unicode="+" glyph-name="plus" horiz-adv-x="528" d="M210 278H34V382H210V566H318V382H494V278H318V94H210V278Z" />
<glyph unicode="," glyph-name="comma" horiz-adv-x="300" d="M46 -116Q101 -96 130 -64T159 6H151Q116 6 89 27T62 89Q62 127 89 150T154 173Q204 173 230 137T256 34Q256 -49 210 -108T76 -194L46 -116Z" />
<glyph unicode="-" glyph-name="hyphen" horiz-adv-x="332" d="M43 305H289V201H43V305Z" />
<glyph unicode="." glyph-name="period" horiz-adv-x="300" d="M61 80Q61 120 86 146T150 173Q188 173 213 147T239 80Q239 41 214 15T150 -12Q112 -12 87 14T61 80Z" />
<glyph unicode="/" glyph-name="slash" horiz-adv-x="339" d="M214 710H310L109 -160H13L214 710Z" />
<glyph unicode="0" glyph-name="zero" horiz-adv-x="528" d="M264 -12Q213 -12 171 9T100 73T54 177T37 320Q37 401 53 462T99 564T171 626T264 647Q315 647 357 627T428 565T474 462T491 320Q491 239 475 177T429 73T357 10T264 -12ZM264 102Q283 102 299 111T327
146T345 213T352 320Q352 385 346 426T327 491T299 524T264 533Q246 533 230 524T202 492T183 427T176 320Q176 255 183 213T202 146T230 112T264 102Z" />
<glyph unicode="1" glyph-name="one" horiz-adv-x="528" d="M70 119H208V486H89V577Q141 587 177 601T247 635H355V119H474V0H70V119Z" />
<glyph unicode="2" glyph-name="two" horiz-adv-x="528" d="M37 84Q98 141 148 190T235 283T292 364T313 436Q313 483 289 507T223 532Q188 532 161 513T110 467L30 546Q77 596 126 621T243 647Q290 647 328 633T395 592T438 528T453 445Q453 405 436 364T391
281T326 198T250 116Q274 119 303 121T356 124H484V0H37V84Z" />
<glyph unicode="3" glyph-name="three" horiz-adv-x="528" d="M90 171Q119 143 153 125T229 107Q276 107 304 126T332 182Q332 203 325 220T298 248T246 266T161 273V377Q204 377 232 383T278 400T303 427T311 462Q311 495 291 513T233 532Q199 532 172 517T114
476L40 566Q84 604 132 625T240 647Q289 647 329 636T398 602T443 547T459 473Q459 423 432 389T353 332V328Q408 312 443 274T479 173Q479 129 460 95T409 37T334 1T243 -12Q165 -12 111 12T22 78L90 171Z" />
<glyph unicode="4" glyph-name="four" horiz-adv-x="528" d="M294 264V367Q294 398 296 438T300 509H296Q284 483 271 456T244 402L160 264H294ZM504 152H431V0H294V152H19V253L251 635H431V264H504V152Z" />
<glyph unicode="5" glyph-name="five" horiz-adv-x="528" d="M89 170Q118 144 151 126T226 107Q275 107 304 132T333 206Q333 254 306 279T233 304Q219 304 208 303T187 297T165 287T139 272L73 314L91 635H451V511H218L207 392Q225 400 241 403T278 407Q319 407
355 395T420 359T464 298T480 210Q480 157 461 116T410 47T336 3T247 -12Q169 -12 115 13T23 77L89 170Z" />
<glyph unicode="6" glyph-name="six" horiz-adv-x="528" d="M278 98Q311 98 334 122T358 201Q358 252 335 272T275 293Q251 293 226 279T179 230Q184 192 194 167T217 127T245 105T278 98ZM406 483Q389 501 362 514T307 528Q281 528 258 518T218 485T189 423T176
330Q188 346 204 358T237 379T271 392T303 397Q344 397 378 385T438 349T478 288T492 201Q492 151 475 112T430 45T363 3T281 -12Q235 -12 192 6T115 62T61 159T41 303Q41 392 62 457T119 564T201 626T298 647Q361 647 407 625T483 571L406 483Z" />
<glyph unicode="7" glyph-name="seven" horiz-adv-x="528" d="M159 0Q163 79 173 145T203 272T253 391T329 511H44V635H486V545Q431 478 398 420T346 299T319 165T307 0H159V0Z" />
<glyph unicode="8" glyph-name="eight" horiz-adv-x="528" d="M168 179Q168 137 197 114T266 90Q303 90 327 109T351 169Q351 190 342 205T314 232T272 256T217 280Q196 260 182 234T168 179ZM303 370Q342 415 342 463Q342 500 322 522T265 545Q236 545 215 527T194
472Q194 433 224 411T303 370ZM42 162Q42 220 73 257T150 318V322Q113 350 89 385T65 472Q65 512 80 544T122 600T186 635T268 647Q311 647 347 635T408 600T447 545T461 473Q461 427 436 392T378 334V330Q424 305 456 266T488 164Q488 126 472 94T427 39T356 2T263
-12Q215 -12 175 0T105 36T59 91T42 162Z" />
<glyph unicode="9" glyph-name="nine" horiz-adv-x="528" d="M252 342Q276 342 301 356T347 405Q337 480 310 508T248 537Q216 537 192 513T168 434Q168 383 192 363T252 342ZM121 152Q137 134 164 121T219 107Q246 107 269 117T309 150T337 211T350 305Q338 289
322 277T289 256T255 243T223 238Q182 238 148 250T88 286T49 347T34 434Q34 483 51 522T96 590T163 632T245 647Q291 647 334 629T411 573T465 476T486 332Q486 243 465 178T408 71T326 9T229 -12Q166 -12 120 11T43 64L121 152Z" />
<glyph unicode=":" glyph-name="colon" horiz-adv-x="300" d="M61 404Q61 444 86 470T150 497Q188 497 213 471T239 404Q239 365 214 339T150 312Q112 312 87 338T61 404ZM61 80Q61 120 86 146T150 173Q188 173 213 147T239 80Q239 41 214 15T150 -12Q112 -12
87 14T61 80Z" />
<glyph unicode=";" glyph-name="semicolon" horiz-adv-x="300" d="M61 404Q61 444 86 470T150 497Q188 497 213 471T239 404Q239 365 214 339T150 312Q112 312 87 338T61 404ZM46 -116Q101 -96 130 -64T159 6H151Q116 6 89 27T62 89Q62 127 89 150T154 173Q204
173 230 137T256 34Q256 -49 210 -108T76 -194L46 -116Z" />
<glyph unicode="&lt;" glyph-name="less" horiz-adv-x="528" d="M34 383L494 560V439L318 381L183 334V330L318 283L494 225V104L34 281V383Z" />
<glyph unicode="=" glyph-name="equal" horiz-adv-x="528" d="M34 498H494V394H34V498ZM34 523H494V419H34V523Z" />
<glyph unicode="&gt;" glyph-name="greater" horiz-adv-x="528" d="M494 281L34 104V225L210 283L345 330V334L210 381L34 439V560L494 383V281Z" />
<glyph unicode="?" glyph-name="question" horiz-adv-x="463" d="M154 231Q149 265 156 293T178 345T209 389T243 427T269 463T280 500Q280 531 262 547T213 563Q185 563 164 550T122 517L41 591Q75 632 121 657T223 682Q265 682 301 672T364 641T406 588T421
511Q421 480 410 456T383 410T348 370T314 329T289 285T283 231H154ZM130 80Q130 120 155 146T218 173Q256 173 281 147T307 80Q307 41 282 15T218 -12Q180 -12 155 14T130 80Z" />
<glyph unicode="@" glyph-name="at" horiz-adv-x="903" d="M49 205Q49 310 85 395T182 542T326 636T500 669Q581 669 646 643T758 570T829 457T854 313Q854 244 833 193T779 107T706 55T626 38Q583 38 551 58T511 114H509Q488 85 454 67T389 48Q329 48 293 88T257
198Q257 244 272 288T315 366T379 422T459 443Q484 443 503 432T535 393H537L551 435H642L596 215Q575 129 642 129Q664 129 685 141T724 177T751 234T761 309Q761 363 746 412T698 498T613 558T488 580Q424 580 363 554T254 479T177 362T148 209Q148 135 171 80T235
-11T328 -65T440 -83Q479 -83 519 -72T592 -44L624 -124Q578 -149 530 -160T428 -172Q353 -172 285 -149T164 -79T80 38T49 205ZM368 207Q368 140 420 140Q436 140 451 150T486 185L510 320Q495 349 464 349Q441 349 424 335T394 300T375 254T368 207Z" />
<glyph unicode="A" glyph-name="A" horiz-adv-x="571" d="M353 270L337 330Q323 379 311 434T284 540H280Q269 488 256 434T229 330L213 270H353ZM383 155H183L143 0H-7L198 652H374L579 0H423L383 155Z" />
<glyph unicode="B" glyph-name="B" horiz-adv-x="604" d="M76 652H299Q350 652 394 645T470 618T521 568T540 490Q540 468 534 446T514 405T479 371T430 349V345Q500 332 536 295T572 192Q572 142 553 106T499 47T418 12T318 0H76V652ZM292 389Q346 389 371 410T396
469Q396 506 371 522T294 538H224V389H292ZM306 114Q428 114 428 203Q428 246 398 265T306 285H224V114H306Z" />
<glyph unicode="C" glyph-name="C" horiz-adv-x="580" d="M45 322Q45 403 70 466T137 574T236 641T356 664Q417 664 466 639T549 579L468 488Q443 511 418 524T358 537Q324 537 295 523T243 481T209 415T196 327Q196 226 239 171T354 115Q395 115 424 131T478
173L559 84Q518 36 466 12T352 -12Q289 -12 233 9T135 73T69 177T45 322Z" />
<glyph unicode="D" glyph-name="D" horiz-adv-x="626" d="M68 652H253Q328 652 388 633T491 575T557 474T580 329Q580 245 557 183T492 81T392 20T261 0H68V652ZM244 119Q285 119 319 130T377 165T415 230T429 329Q429 387 416 426T378 489T319 523T244 533H216V119H244Z" />
<glyph unicode="E" glyph-name="E" horiz-adv-x="546" d="M76 652H485V528H224V397H446V274H224V124H495V0H76V652Z" />
<glyph unicode="F" glyph-name="F" horiz-adv-x="523" d="M76 652H488V528H224V377H449V253H224V0H76V652Z" />
<glyph unicode="G" glyph-name="G" horiz-adv-x="636" d="M45 322Q45 403 70 466T139 574T241 641T366 664Q435 664 485 638T569 579L488 488Q463 511 437 524T368 537Q330 537 299 523T245 481T209 415T196 327Q196 226 241 171T380 115Q400 115 418 120T449
135V247H341V367H580V67Q562 52 539 38T487 12T427 -5T361 -12Q295 -12 238 9T137 73T70 177T45 322Z" />
<glyph unicode="H" glyph-name="H" horiz-adv-x="672" d="M76 652H224V401H449V652H596V0H449V272H224V0H76V652Z" />
<glyph unicode="I" glyph-name="I" horiz-adv-x="300" d="M76 652H224V0H76V652Z" />
<glyph unicode="J" glyph-name="J" horiz-adv-x="507" d="M115 180Q134 147 157 131T206 115Q246 115 266 139T287 229V652H435V217Q435 170 423 128T385 55T320 6T226 -12Q151 -12 100 17T15 106L115 180Z" />
<glyph unicode="K" glyph-name="K" horiz-adv-x="613" d="M76 652H224V385H227L422 652H583L386 392L620 0H458L300 275L224 175V0H76V652Z" />
<glyph unicode="L" glyph-name="L" horiz-adv-x="516" d="M76 652H224V124H481V0H76V652Z" />
<glyph unicode="M" glyph-name="M" horiz-adv-x="761" d="M76 652H232L341 359L380 245H384L423 359L529 652H685V0H547V239Q547 263 549 292T554 350T560 408T566 461H562L509 310L408 57H349L249 310L197 461H193Q196 437 199 409T205 351T210 292T212 239V0H76V652Z" />
<glyph unicode="N" glyph-name="N" horiz-adv-x="664" d="M76 652H227L397 328L462 184H466Q461 236 454 300T447 422V652H587V0H436L266 325L202 467H198Q203 413 210 351T217 231V0H76V652Z" />
<glyph unicode="O" glyph-name="O" horiz-adv-x="683" d="M341 -12Q275 -12 221 11T127 79T67 186T45 329Q45 409 66 471T127 576T220 641T341 664Q407 664 461 642T555 576T615 471T637 329Q637 249 616 186T555 79T462 12T341 -12ZM341 115Q408 115 447 172T486
329Q486 427 447 482T341 537Q275 537 236 482T196 329Q196 280 206 241T235 173T281 130T341 115Z" />
<glyph unicode="P" glyph-name="P" horiz-adv-x="605" d="M76 652H314Q367 652 413 642T494 607T549 542T569 442Q569 385 549 343T493 274T412 234T314 221H224V0H76V652ZM305 338Q425 338 425 442Q425 493 395 514T305 535H224V338H305Z" />
<glyph unicode="Q" glyph-name="Q" horiz-adv-x="683" d="M193 329Q193 230 232 173T338 115Q405 115 444 172T483 329Q483 427 444 482T338 537Q271 537 232 482T193 329ZM668 -157Q650 -166 621 -172T553 -178Q449 -178 378 -130T271 -5Q219 6 177 33T104 104T58
203T42 329Q42 409 63 471T124 576T217 641T338 664Q404 664 458 642T552 576T612 471T634 329Q634 197 578 112T427 0Q450 -34 489 -47T570 -61Q591 -61 609 -58T642 -49L668 -157Z" />
<glyph unicode="R" glyph-name="R" horiz-adv-x="615" d="M224 352H299Q357 352 387 376T418 449Q418 497 388 516T299 535H224V352ZM429 0L304 235H224V0H76V652H311Q363 652 408 642T488 609T543 546T563 449Q563 377 531 331T447 261L594 0H429Z" />
<glyph unicode="S" glyph-name="S" horiz-adv-x="554" d="M119 183Q154 153 196 134T279 115Q325 115 347 132T370 178Q370 193 364 204T345 223T315 239T276 256L192 292Q166 302 143 318T101 355T71 405T60 470Q60 510 77 545T125 607T198 649T292 664Q349 664
404 642T502 578L428 485Q396 510 364 523T292 537Q254 537 232 522T209 478Q209 463 216 453T237 434T269 418T309 401L392 367Q452 343 486 301T521 190Q521 149 505 113T457 49T380 5T276 -12Q212 -12 149 11T34 82L119 183Z" />
<glyph unicode="T" glyph-name="T" horiz-adv-x="555" d="M204 528H24V652H530V528H351V0H204V528Z" />
<glyph unicode="U" glyph-name="U" horiz-adv-x="663" d="M73 652H220V287Q220 191 249 153T333 115Q388 115 418 153T449 287V652H591V302Q591 138 526 63T333 -12Q206 -12 140 63T73 302V652Z" />
<glyph unicode="V" glyph-name="V" horiz-adv-x="555" d="M-8 652H148L227 348Q241 294 252 244T279 139H283Q298 193 309 243T335 348L412 652H563L366 0H189L-8 652Z" />
<glyph unicode="W" glyph-name="W" horiz-adv-x="812" d="M13 652H164L209 347Q216 296 222 245T236 141H240Q249 193 258 244T278 347L348 652H473L544 347Q554 297 563 246T583 141H587Q593 194 599 245T613 347L658 652H799L683 0H498L434 296Q426 334 420
372T408 447H404Q398 411 392 373T378 296L316 0H134L13 652Z" />
<glyph unicode="X" glyph-name="X" horiz-adv-x="566" d="M191 335L21 652H186L242 529Q253 506 264 481T290 424H294Q305 455 315 480T335 529L387 652H544L375 328L555 0H391L327 133Q314 159 303 184T278 240H274Q262 210 251 185T229 133L168 0H11L191 335Z" />
<glyph unicode="Y" glyph-name="Y" horiz-adv-x="524" d="M188 232L-8 652H149L208 502Q221 465 234 431T261 358H265Q279 396 292 430T320 502L378 652H532L335 232V0H188V232Z" />
<glyph unicode="Z" glyph-name="Z" horiz-adv-x="540" d="M35 89L323 528H62V652H505V563L217 124H507V0H35V89Z" />
<glyph unicode="[" glyph-name="bracketleft" horiz-adv-x="344" d="M87 708H298V630H197V-74H298V-152H87V708Z" />
<glyph unicode="\" glyph-name="backslash" horiz-adv-x="339" d="M28 710H124L326 -160H229L28 710Z" />
<glyph unicode="]" glyph-name="bracketright" horiz-adv-x="344" d="M148 -74V630H46V708H257V-152H46V-74H148Z" />
<glyph unicode="^" glyph-name="asciicircum" horiz-adv-x="528" d="M205 670H323L478 274H357L311 402L266 537H262L217 402L171 274H50L205 670Z" />
<glyph unicode="_" glyph-name="underscore" horiz-adv-x="500" d="M488 -57V-140H12V-57H488Z" />
<glyph unicode="`" glyph-name="grave" horiz-adv-x="555" d="M129 724H271L360 574H253L129 724Z" />
<glyph unicode="a" glyph-name="a" horiz-adv-x="534" d="M47 138Q47 216 113 260T326 319Q324 352 306 371T248 391Q216 391 184 379T116 346L64 443Q112 472 164 490T276 508Q372 508 422 454T473 284V0H353L342 51H339Q307 23 272 6T194 -12Q160 -12 133 -1T87
31T58 79T47 138ZM187 149Q187 125 202 114T244 102Q270 102 288 113T326 144V231Q247 220 217 199T187 149Z" />
<glyph unicode="b" glyph-name="b" horiz-adv-x="573" d="M65 701H212V529L208 453Q237 479 270 493T339 508Q384 508 420 490T481 440T520 361T534 257Q534 193 517 143T470 59T403 6T325 -12Q292 -12 259 4T196 52H192L180 0H65V701ZM212 140Q232 122 252 115T291
108Q329 108 356 142T383 254Q383 388 297 388Q253 388 212 343V140Z" />
<glyph unicode="c" glyph-name="c" horiz-adv-x="467" d="M36 248Q36 310 57 358T113 440T196 490T294 508Q340 508 377 493T439 451L372 360Q337 389 303 389Q249 389 218 351T187 248Q187 183 218 145T298 107Q325 107 347 118T387 143L446 50Q410 18 366 3T281
-12Q229 -12 185 5T107 56T55 137T36 248Z" />
<glyph unicode="d" glyph-name="d" horiz-adv-x="573" d="M39 248Q39 309 56 357T102 438T168 490T245 508Q287 508 314 494T367 456L361 532V701H508V0H388L378 49H374Q348 23 313 6T242 -12Q196 -12 159 6T95 57T54 139T39 248ZM190 250Q190 176 213 142T280
108Q304 108 323 118T361 153V356Q341 374 320 381T279 388Q244 388 217 355T190 250Z" />
<glyph unicode="e" glyph-name="e" horiz-adv-x="516" d="M36 248Q36 308 56 356T108 438T183 490T270 508Q323 508 362 490T428 440T468 365T481 270Q481 250 479 234T475 208H178Q188 151 222 126T307 100Q360 100 414 133L463 44Q425 18 379 3T287 -12Q234
-12 188 5T108 56T55 138T36 248ZM356 299Q356 342 337 369T273 396Q238 396 212 373T177 299H356Z" />
<glyph unicode="f" glyph-name="f" horiz-adv-x="341" d="M345 587Q317 597 294 597Q267 597 252 581T237 526V496H326V381H237V0H90V381H24V490L90 495V522Q90 561 99 596T131 657T188 698T273 713Q304 713 329 707T372 695L345 587Z" />
<glyph unicode="g" glyph-name="g" horiz-adv-x="534" d="M155 -62Q155 -90 185 -104T265 -119Q315 -119 347 -102T379 -58Q379 -35 360 -27T303 -19H252Q226 -19 210 -18T182 -13Q155 -37 155 -62ZM34 -85Q34 -25 105 15V19Q85 32 72 52T59 103Q59 130 75 154T115
196V200Q89 218 69 251T48 329Q48 374 65 407T110 463T176 497T253 508Q297 508 330 496H511V389H432Q439 378 443 361T448 324Q448 281 433 250T392 198T330 167T253 157Q224 157 193 167Q183 159 179 151T175 130Q175 111 191 102T250 93H330Q422 93 470 64T519
-33Q519 -72 500 -104T444 -160T357 -197T242 -211Q198 -211 161 -204T95 -181T50 -142T34 -85ZM253 246Q282 246 301 266T321 329Q321 368 302 388T253 409Q224 409 205 389T185 329Q185 287 204 267T253 246Z" />
<glyph unicode="h" glyph-name="h" horiz-adv-x="571" d="M65 701H212V529L205 440Q233 465 270 486T358 508Q439 508 475 455T512 308V0H365V289Q365 343 351 363T304 383Q276 383 256 371T212 335V0H65V701Z" />
<glyph unicode="i" glyph-name="i" horiz-adv-x="276" d="M138 569Q101 569 77 590T53 646Q53 680 77 701T138 722Q176 722 199 701T223 646Q223 612 200 591T138 569ZM65 496H212V0H65V496Z" />
<glyph unicode="j" glyph-name="j" horiz-adv-x="278" d="M66 496H213V3Q213 -38 205 -74T176 -137T121 -180T36 -196Q5 -196 -15 -192T-51 -182L-25 -74Q-15 -77 -6 -79T14 -81Q43 -81 54 -62T66 -1V496ZM140 569Q103 569 79 590T55 646Q55 680 79 701T140 722Q177
722 201 701T225 646Q225 612 201 591T140 569Z" />
<glyph unicode="k" glyph-name="k" horiz-adv-x="548" d="M65 701H208V299H212L369 496H529L355 292L542 0H383L271 193L208 122V0H65V701Z" />
<glyph unicode="l" glyph-name="l" horiz-adv-x="286" d="M65 701H212V148Q212 125 220 116T238 107Q243 107 246 107T256 109L274 0Q262 -5 244 -8T200 -12Q162 -12 136 0T95 33T72 85T65 154V701Z" />
<glyph unicode="m" glyph-name="m" horiz-adv-x="857" d="M65 496H185L195 432H199Q230 463 265 485T349 508Q402 508 434 487T486 425Q519 459 555 483T642 508Q722 508 759 455T797 308V0H650V289Q650 343 636 363T589 383Q552 383 504 335V0H357V289Q357 343
343 363T296 383Q258 383 212 335V0H65V496Z" />
<glyph unicode="n" glyph-name="n" horiz-adv-x="572" d="M65 496H185L195 433H199Q231 463 269 485T358 508Q439 508 475 455T512 308V0H365V289Q365 343 351 363T304 383Q276 383 256 371T212 335V0H65V496Z" />
<glyph unicode="o" glyph-name="o" horiz-adv-x="555" d="M36 248Q36 310 56 358T109 440T187 490T278 508Q325 508 368 491T445 440T499 359T519 248Q519 186 499 138T446 56T369 6T278 -12Q231 -12 187 5T110 56T56 137T36 248ZM187 248Q187 183 209 145T278
107Q323 107 346 145T369 248Q369 313 346 351T278 389Q232 389 210 351T187 248Z" />
<glyph unicode="p" glyph-name="p" horiz-adv-x="573" d="M212 -39V-184H65V496H185L195 447H199Q228 473 264 490T340 508Q385 508 421 490T482 439T520 360T534 256Q534 192 517 143T470 59T403 6T325 -12Q293 -12 263 1T207 40L212 -39ZM212 140Q232 122 252
115T291 108Q329 108 356 142T383 254Q383 388 297 388Q254 388 212 343V140Z" />
<glyph unicode="q" glyph-name="q" horiz-adv-x="572" d="M39 248Q39 309 56 357T102 438T168 490T245 508Q286 508 317 494T377 447H381L393 496H508V-184H361V-33L367 43Q342 19 309 4T242 -12Q196 -12 159 6T95 57T54 139T39 248ZM190 250Q190 176 213 142T280
108Q304 108 323 118T361 153V356Q341 374 320 381T279 388Q244 388 217 355T190 250Z" />
<glyph unicode="r" glyph-name="r" horiz-adv-x="398" d="M65 496H185L195 409H199Q226 460 264 484T340 508Q361 508 374 506T399 498L375 371Q361 375 349 377T321 379Q293 379 263 359T212 288V0H65V496Z" />
<glyph unicode="s" glyph-name="s" horiz-adv-x="443" d="M87 149Q121 123 152 110T215 97Q248 97 263 108T278 139Q278 151 270 160T247 178T214 192T177 207Q154 216 131 228T89 257T58 298T46 353Q46 387 59 416T98 465T158 496T236 508Q293 508 336 489T411
445L345 357Q318 377 292 388T240 399Q184 399 184 360Q184 348 192 340T213 324T244 311T281 297Q305 288 328 277T371 248T403 207T415 148Q415 114 402 85T363 35T299 1T211 -12Q162 -12 111 7T21 57L87 149Z" />
<glyph unicode="t" glyph-name="t" horiz-adv-x="383" d="M85 381H17V490L93 496L110 628H232V496H351V381H232V182Q232 140 249 122T296 103Q308 103 320 106T343 113L366 6Q346 0 319 -6T256 -12Q210 -12 178 2T125 41T95 101T85 180V381Z" />
<glyph unicode="u" glyph-name="u" horiz-adv-x="567" d="M58 496H205V207Q205 153 220 133T267 113Q295 113 314 126T355 168V496H502V0H382L372 69H368Q337 31 300 10T212 -12Q131 -12 95 41T58 188V496Z" />
<glyph unicode="v" glyph-name="v" horiz-adv-x="523" d="M12 496H160L224 262Q234 225 243 187T263 109H267Q276 148 285 186T305 262L370 496H511L349 0H179L12 496Z" />
<glyph unicode="w" glyph-name="w" horiz-adv-x="776" d="M24 496H170L218 266Q224 229 229 193T240 119H244Q251 157 257 194T273 266L328 496H455L511 266Q520 229 527 193T542 119H546Q553 157 557 193T569 266L616 496H752L633 0H461L416 198Q408 233 402
268T389 343H385Q378 303 373 268T360 198L316 0H148L24 496Z" />
<glyph unicode="x" glyph-name="x" horiz-adv-x="514" d="M166 258L23 496H181L225 416Q235 395 245 374T267 331H271Q279 352 288 373T305 416L339 496H491L347 241L500 0H342L294 82Q282 103 271 125T247 168H243Q234 147 224 126T205 82L166 0H14L166 258Z" />
<glyph unicode="y" glyph-name="y" horiz-adv-x="521" d="M76 -72Q83 -74 92 -76T109 -78Q146 -78 166 -60T196 -13L203 13L12 496H160L231 283Q242 249 251 214T270 142H274Q282 177 290 212T308 283L368 496H509L337 -5Q319 -52 300 -87T255 -146T197 -182T120
-194Q97 -194 81 -192T50 -184L76 -72V-72Z" />
<glyph unicode="z" glyph-name="z" horiz-adv-x="460" d="M38 79L246 381H61V496H429V418L221 115H436V0H38V79Z" />
<glyph unicode="{" glyph-name="braceleft" horiz-adv-x="344" d="M107 -10Q107 17 108 38T112 78T115 117T117 161Q117 174 113 187T98 210T72 227T31 235V321Q55 322 71 328T98 345T112 369T117 395Q117 418 116 438T112 477T109 518T107 566Q107 646 138 677T235
708H298V630H279Q248 630 237 616T226 560Q226 520 228 481T230 397Q230 340 212 315T156 280V276Q194 267 212 242T230 159Q230 113 228 75T226 -4Q226 -45 237 -59T279 -74H298V-152H235Q169 -152 138 -122T107 -10Z" />
<glyph unicode="|" glyph-name="bar" horiz-adv-x="268" d="M86 750H182V-250H86V750Z" />
<glyph unicode="}" glyph-name="braceright" horiz-adv-x="344" d="M65 -74Q96 -74 107 -60T118 -4Q118 37 116 75T114 159Q114 216 132 241T188 276V280Q150 289 132 314T114 397Q114 442 116 481T118 560Q118 601 107 615T65 630H46V708H109Q175 708 206 677T237
566Q237 540 236 519T232 478T229 438T227 395Q227 382 231 369T246 346T272 329T313 321V235Q289 234 273 228T246 211T232 187T227 161Q227 137 228 118T232 79T235 38T237 -10Q237 -91 206 -121T109 -152H46V-74H65Z" />
<glyph unicode="~" glyph-name="asciitilde" horiz-adv-x="528" d="M29 317Q66 374 103 397T179 420Q210 420 233 408T275 382T312 356T351 344Q372 344 389 359T423 402L499 343Q462 286 425 263T349 240Q318 240 295 252T253 278T216 304T177 316Q157 316 139
301T105 258L29 317Z" />
</font>
</defs>
</svg>
